------------------------------------------------------------------------
r1031133 | scripty | 2009-10-04 03:02:03 +0000 (Sun, 04 Oct 2009) | 1 line

SVN_SILENT made messages (.desktop file)
------------------------------------------------------------------------
r1032983 | scripty | 2009-10-09 03:13:46 +0000 (Fri, 09 Oct 2009) | 1 line

SVN_SILENT made messages (.desktop file)
------------------------------------------------------------------------
r1035863 | scripty | 2009-10-16 03:18:03 +0000 (Fri, 16 Oct 2009) | 1 line

SVN_SILENT made messages (.desktop file)
------------------------------------------------------------------------
r1042076 | scripty | 2009-10-29 04:21:23 +0000 (Thu, 29 Oct 2009) | 1 line

SVN_SILENT made messages (.desktop file)
------------------------------------------------------------------------
